<svg xmlns="http://www.w3.org/2000/svg" viewBox="0 0 107 33">
  <defs>
    <style>
      .cls-1 {
        fill: #fff;
        stroke: #fff;
        stroke-miterlimit: 10;
      }

      .cls-2 {
        fill: #ff4c60;
      }
    </style>
  </defs>
  <title>baysptra</title>
  <g id="OBJECTS">
    <g>
      <path class="cls-1" d="M15.24,5.55a5.79,5.79,0,0,1,4,1.27,4.65,4.65,0,0,1,1.42,3.67,4.26,4.26,0,0,1-2,4v.11a3.66,3.66,0,0,1,2,1.61,5.65,5.65,0,0,1,.7,3,5.29,5.29,0,0,1-.44,2.2A4.47,4.47,0,0,1,19.68,23a5.27,5.27,0,0,1-1.89,1,8.22,8.22,0,0,1-2.39.33H7.94a1,1,0,0,1-.73-.2,1,1,0,0,1-.2-.7V6.45a1,1,0,0,1,.2-.7,1,1,0,0,1,.73-.2Zm2,5.41q0-2.32-2.43-2.32H10.34v4.64h4.51a2.59,2.59,0,0,0,1.81-.57A2.27,2.27,0,0,0,17.27,11Zm.55,7.81a2.2,2.2,0,0,0-2.51-2.48h-5v4.91h5A2.18,2.18,0,0,0,17.83,18.76Z"/>
      <path class="cls-1" d="M23.63,13a4.81,4.81,0,0,1,2-2,7.2,7.2,0,0,1,3.42-.73,7.78,7.78,0,0,1,2.7.41,4.06,4.06,0,0,1,2.66,2.86,8.1,8.1,0,0,1,.28,2.16v6.83a1.8,1.8,0,0,1-.2,1,1.7,1.7,0,0,1-.75.53,8.18,8.18,0,0,1-1.93.5,18.66,18.66,0,0,1-2.82.18,12.6,12.6,0,0,1-2.89-.28,4.38,4.38,0,0,1-1.81-.83,2.94,2.94,0,0,1-.92-1.35,5.74,5.74,0,0,1-.26-1.82,5.18,5.18,0,0,1,.34-2,2.89,2.89,0,0,1,1.07-1.31,5.1,5.1,0,0,1,1.86-.71,14.27,14.27,0,0,1,2.72-.22q.76,0,1.48.05l1.06.08v-.74a2.9,2.9,0,0,0-.58-1.93A2.59,2.59,0,0,0,29,12.93a3,3,0,0,0-2.77,1.27,1.37,1.37,0,0,1-.49.5,1,1,0,0,1-.65-.11l-1.06-.45a1.09,1.09,0,0,1-.57-.48A.83.83,0,0,1,23.63,13Zm8,5.83-.54,0-.73-.05-.8,0h-.8a3.22,3.22,0,0,0-2,.45,1.59,1.59,0,0,0-.51,1.27,2.69,2.69,0,0,0,.09.73,1.14,1.14,0,0,0,.37.57,1.82,1.82,0,0,0,.76.36,5.45,5.45,0,0,0,1.25.12q1,0,1.64-.07a9.94,9.94,0,0,0,1-.15.57.57,0,0,0,.22-.12.36.36,0,0,0,.07-.25Z"/>
      <path class="cls-1" d="M49,10.78a.83.83,0,0,1,.18.62V24.72a8,8,0,0,1-.33,2.36,4.64,4.64,0,0,1-1,1.82A4.59,4.59,0,0,1,46,30.07a7.6,7.6,0,0,1-2.65.41,7.63,7.63,0,0,1-3.46-.67,4.9,4.9,0,0,1-2-1.86.8.8,0,0,1,.34-1.32l1-.55a1.18,1.18,0,0,1,.75-.17,1.08,1.08,0,0,1,.57.49,2.86,2.86,0,0,0,1.06,1,3.62,3.62,0,0,0,1.71.34q2.8,0,2.8-2.85V23.64q-.61.13-1.38.25a11.71,11.71,0,0,1-1.75.12,5.54,5.54,0,0,1-4.18-1.4,5.43,5.43,0,0,1-1.33-3.9V11.4a.83.83,0,0,1,.18-.62.92.92,0,0,1,.63-.17H39.7a.87.87,0,0,1,.62.17.87.87,0,0,1,.17.62v7.2q0,2.61,2.88,2.61a8.78,8.78,0,0,0,1.52-.12q.67-.12,1.2-.25V11.4a.83.83,0,0,1,.19-.62.92.92,0,0,1,.63-.17h1.42A.93.93,0,0,1,49,10.78Z"/>
      <path class="cls-1" d="M51.67,14.46A3.88,3.88,0,0,1,53,11.39a6.09,6.09,0,0,1,4.09-1.17,7.44,7.44,0,0,1,3.67.77,4.73,4.73,0,0,1,2,2.06.88.88,0,0,1,.13.71,1,1,0,0,1-.55.48l-1.19.47a.91.91,0,0,1-.64.13,1.22,1.22,0,0,1-.46-.5,2.72,2.72,0,0,0-1-1A3.66,3.66,0,0,0,57.19,13a3.81,3.81,0,0,0-1.89.36,1.16,1.16,0,0,0-.59,1.07,1.17,1.17,0,0,0,.78,1.21,9.27,9.27,0,0,0,2.31.42,19.94,19.94,0,0,1,2.18.36,5.24,5.24,0,0,1,1.7.69,3.17,3.17,0,0,1,1.11,1.23,4.31,4.31,0,0,1,.39,2,4,4,0,0,1-1.44,3.18,6.42,6.42,0,0,1-4.26,1.23,7.78,7.78,0,0,1-3.81-.82,4.52,4.52,0,0,1-2.07-2.37.75.75,0,0,1,.53-1.11L53.31,20a1,1,0,0,1,.63,0,1,1,0,0,1,.45.54,2,2,0,0,0,1,1.11,4.6,4.6,0,0,0,1.94.34q2.79,0,2.8-1.56a1.19,1.19,0,0,0-.78-1.23A9.67,9.67,0,0,0,57,18.71q-1-.11-1.93-.29a5.08,5.08,0,0,1-1.7-.65,3.69,3.69,0,0,1-1.23-1.24A4,4,0,0,1,51.67,14.46Z"/>
      <path class="cls-1" d="M66.47,11a14.51,14.51,0,0,1,2-.53,16.59,16.59,0,0,1,3.07-.24,5.66,5.66,0,0,1,4.22,1.38,5.43,5.43,0,0,1,1.35,3.94v3.61a5.5,5.5,0,0,1-1.44,4.09,6.09,6.09,0,0,1-4.44,1.42,6.54,6.54,0,0,1-1.53-.17l-1.24-.3v5.06a.92.92,0,0,1-.17.63.83.83,0,0,1-.62.18H66.26a.69.69,0,0,1-.82-.82V12.49a1.75,1.75,0,0,1,.2-.94A1.81,1.81,0,0,1,66.47,11Zm7.62,4.64q0-2.61-3-2.61a9.55,9.55,0,0,0-1.31.08,9.19,9.19,0,0,0-1.07.21.36.36,0,0,0-.26.34v7.83q.45.13,1.12.26a7.46,7.46,0,0,0,1.44.13,3.23,3.23,0,0,0,2.31-.7,2.82,2.82,0,0,0,.73-2.12Z"/>
      <path class="cls-1" d="M84,7.62a.83.83,0,0,1,.18.62v2.37h3a.92.92,0,0,1,.63.17.83.83,0,0,1,.18.62v1.21a.88.88,0,0,1-.18.63.88.88,0,0,1-.63.18h-3v5.3a6.24,6.24,0,0,0,.16,1.57,1.94,1.94,0,0,0,.5.92,1.73,1.73,0,0,0,.91.44,7.9,7.9,0,0,0,1.41.11,1,1,0,0,1,.66.17.87.87,0,0,1,.18.65V23.8a.88.88,0,0,1-.18.65,1.07,1.07,0,0,1-.66.2,11,11,0,0,1-2.78-.21,4,4,0,0,1-1.87-.94,3.87,3.87,0,0,1-1.05-1.81,10.35,10.35,0,0,1-.33-2.85V13.44H79.26a.83.83,0,0,1-.62-.18.92.92,0,0,1-.17-.63V11.4a.87.87,0,0,1,.17-.62.87.87,0,0,1,.62-.17h1.82V8.24a.83.83,0,0,1,.18-.62.93.93,0,0,1,.63-.17h1.42A.92.92,0,0,1,84,7.62Z"/>
      <path class="cls-1" d="M96.75,10.22a.93.93,0,0,1,.63.17.88.88,0,0,1,.18.65V12.2a.88.88,0,0,1-.18.63.88.88,0,0,1-.63.19H95.8a8.61,8.61,0,0,0-2.51.32.35.35,0,0,0-.22.13.41.41,0,0,0,0,.18v9.81a.92.92,0,0,1-.17.63.83.83,0,0,1-.62.18H90.79a.69.69,0,0,1-.82-.82V12.51a1.75,1.75,0,0,1,.2-.94A1.81,1.81,0,0,1,91,11a11,11,0,0,1,1.94-.51,19.88,19.88,0,0,1,3-.28Z"/>
      <path class="cls-2" d="M101,21.22a1.89,1.89,0,0,1,.36,1.32v.24A1.89,1.89,0,0,1,101,24.1a1.88,1.88,0,0,1-1.33.36h-.18a1.88,1.88,0,0,1-1.33-.36,1.89,1.89,0,0,1-.36-1.33v-.24a1.89,1.89,0,0,1,.36-1.32,1.84,1.84,0,0,1,1.33-.37h.18A1.84,1.84,0,0,1,101,21.22Z"/>
    </g>
  </g>
</svg>
